cmake_minimum_required(VERSION 3.16)
project(qrc_project LANGUAGES CXX)

find_package(Qt6 REQUIRED COMPONENTS Core)
qt_standard_project_setup(REQUIRES 6.8)

qt_add_executable(qrc_project
    main.cpp
)

qt_add_resources(qrc_project_resources test.qrc)
target_sources(qrc_project
    PRIVATE
        ${qrc_project_resources}
)

target_link_libraries(qrc_project
    PRIVATE
        Qt::Core
)
